\relax 
\providecommand\hyper@newdestlabel[2]{}
\providecommand\HyperFirstAtBeginDocument{\AtBeginDocument}
\HyperFirstAtBeginDocument{\ifx\hyper@anchor\@undefined
\global\let\oldcontentsline\contentsline
\gdef\contentsline#1#2#3#4{\oldcontentsline{#1}{#2}{#3}}
\global\let\oldnewlabel\newlabel
\gdef\newlabel#1#2{\newlabelxx{#1}#2}
\gdef\newlabelxx#1#2#3#4#5#6{\oldnewlabel{#1}{{#2}{#3}}}
\AtEndDocument{\ifx\hyper@anchor\@undefined
\let\contentsline\oldcontentsline
\let\newlabel\oldnewlabel
\fi}
\fi}
\global\let\hyper@last\relax 
\gdef\HyperFirstAtBeginDocument#1{#1}
\providecommand\HyField@AuxAddToFields[1]{}
\providecommand\HyField@AuxAddToCoFields[2]{}
\citation{Cardenas.2008b,Richards.2008,Farwell.2011}
\citation{Cardenas.2008,Mo.2010,Pasqualetti.2013}
\citation{Pasqualetti.2013,Fawzi14,Pajic.2014}
\citation{Fawzi14}
\citation{Pajic.2014}
\@writefile{toc}{\contentsline {section}{\numberline {I}Introduction}{1}{section.1}}
\@writefile{toc}{\contentsline {section}{\numberline {II}Problem Statement}{1}{section.2}}
\newlabel{eq:system}{{1}{1}{Problem Statement}{equation.2.1}{}}
\@writefile{toc}{\contentsline {section}{\numberline {III}Preliminary Material}{2}{section.3}}
\@writefile{toc}{\contentsline {subsection}{\numberline {\unhbox \voidb@x \hbox {III-A}}Known System with Sensor Attacks Only}{2}{subsection.3.1}}
\newlabel{eq:system_sensors}{{2}{2}{Known System with Sensor Attacks Only}{equation.3.2}{}}
\citation{Fawzi14}
\citation{Fawzi14}
\newlabel{P}{{3}{3}{Known System with Sensor Attacks Only}{equation.3.3}{}}
\newlabel{eq:relaxed}{{4}{3}{Known System with Sensor Attacks Only}{equation.3.4}{}}
\@writefile{toc}{\contentsline {subsection}{\numberline {\unhbox \voidb@x \hbox {III-B}}Known System with Actuator and Sensor Attacks}{3}{subsection.3.2}}
\newlabel{eq:system_sensors-actuators}{{5}{3}{Known System with Actuator and Sensor Attacks}{equation.3.5}{}}
\citation{Fawzi14}
\citation{Silverman.1976}
\citation{Bertsimas.2014}
\citation{Bertsimas.2014}
\citation{Xu.2009,BenTal.2009}
\newlabel{eq:AS}{{6}{4}{Known System with Actuator and Sensor Attacks}{equation.3.6}{}}
\newlabel{eq:AS_relaxed}{{7}{4}{Known System with Actuator and Sensor Attacks}{equation.3.7}{}}
\@writefile{toc}{\contentsline {subsection}{\numberline {\unhbox \voidb@x \hbox {III-C}}Equivalence of Robust Regression and $\ell _{q}$-Regularization}{4}{subsection.3.3}}
\newlabel{thm:equiv}{{1}{4}{Equivalence of Robust Regression and $\ell _{q}$-Regularization \cite [Corollary 1]{Bertsimas.2014}}{thm.1}{}}
\@writefile{toc}{\contentsline {section}{\numberline {IV}Robust Estimation}{5}{section.4}}
\newlabel{eq:system_compact}{{8}{5}{Robust Estimation}{equation.4.8}{}}
\newlabel{eq:uMatrices}{{9}{5}{Robust Estimation}{equation.4.9}{}}
\newlabel{eq:matrices}{{10}{5}{Robust Estimation}{equation.4.10}{}}
\citation{Pajic.2014}
\citation{Pajic.2014}
\newlabel{eq:RC}{{11}{6}{Robust Estimation}{equation.4.11}{}}
\@writefile{toc}{\contentsline {subsection}{\numberline {\unhbox \voidb@x \hbox {IV-A}}Robust Estimation of $x_0$}{6}{subsection.4.1}}
\newlabel{sec:estimator}{{\unhbox \voidb@x \hbox {IV-A}}{6}{Robust Estimation of $x_0$}{subsection.4.1}{}}
\@writefile{toc}{\contentsline {subsubsection}{\numberline {\unhbox \voidb@x \hbox {IV-A}1}Row-wise Uncertainty Sets}{6}{subsubsection.4.1.1}}
\newlabel{eq:RC_expanded}{{12}{6}{Row-wise Uncertainty Sets}{equation.4.12}{}}
\newlabel{eq:subproblem_E}{{13}{6}{Row-wise Uncertainty Sets}{equation.4.13}{}}
\newlabel{defn:row_wise_uncertainty_set}{{1}{7}{Row-wise uncertainty sets}{defn.1}{}}
\newlabel{eq:row_wise_uncertainty_set}{{14}{7}{Row-wise uncertainty sets}{equation.4.14}{}}
\newlabel{lem:1}{{1}{7}{}{lem.1}{}}
\newlabel{asmpt:uncertainty_set_uncoupled}{{1}{7}{Uncoupled uncertainty sets}{asmpt.1}{}}
\newlabel{prop:general}{{1}{7}{Robust Estimation of $x_0$ with $\ell _1/\ell _r$ relaxation and $\ell _q$-regularization}{prop.1}{}}
\newlabel{eq:robust_estimator}{{15}{7}{Robust Estimation of $x_0$ with $\ell _1/\ell _r$ relaxation and $\ell _q$-regularization}{equation.4.15}{}}
\newlabel{cor:q1}{{1}{8}{Robust Estimation of $x_0$ with $\ell _1/\ell _r$ relaxation and $\ell _1$-regularization}{cor.1}{}}
\@writefile{toc}{\contentsline {subsubsection}{\numberline {\unhbox \voidb@x \hbox {IV-A}2}Coupled Uncertainty Set}{9}{subsubsection.4.1.2}}
\newlabel{defn:uncertainty_set_coupled}{{2}{9}{Coupled uncertainty set}{defn.2}{}}
\newlabel{prop:equiv}{{2}{9}{Robust Estimation of $x_0$ with $\ell _1/\ell _1$ relaxation and $\ell _1$-regularization}{prop.2}{}}
\@writefile{toc}{\contentsline {subsubsection}{\numberline {\unhbox \voidb@x \hbox {IV-A}3}Summary}{10}{subsubsection.4.1.3}}
\@writefile{toc}{\contentsline {subsection}{\numberline {\unhbox \voidb@x \hbox {IV-B}}Robust Estimation of Sequence of States}{10}{subsection.4.2}}
\newlabel{eq:system_forward_compact}{{17}{11}{Robust Estimation of Sequence of States}{equation.4.17}{}}
\newlabel{eq:matrices}{{18}{11}{Robust Estimation of Sequence of States}{equation.4.18}{}}
\newlabel{prop:states}{{3}{11}{Robust Estimation of State Sequence}{prop.3}{}}
\citation{Silverman.1976}
\@writefile{toc}{\contentsline {subsection}{\numberline {\unhbox \voidb@x \hbox {IV-C}}Robust Filtering as a Corollary}{12}{subsection.4.3}}
\newlabel{eq:filter_system}{{19}{12}{Robust Filtering as a Corollary}{equation.4.19}{}}
\newlabel{cor:rFilter1}{{2}{13}{Robust Filtering with Row-wise Uncertainty Sets}{cor.2}{}}
\newlabel{cor:rFilter2}{{3}{13}{Robust Filtering with a Coupled Uncertainty Set}{cor.3}{}}
\citation{Xie.1994}
\citation{Christie.2000}
\citation{Pasqualetti.2011}
\@writefile{toc}{\contentsline {section}{\numberline {V}Numerical Simulations}{16}{section.5}}
\newlabel{sec:numerical_sim}{{V}{16}{Numerical Simulations}{section.5}{}}
\@writefile{lof}{\contentsline {figure}{\numberline {1}{\ignorespaces IEEE 14-bus power network}}{16}{figure.1}}
\newlabel{fig:14_bus}{{1}{16}{IEEE 14-bus power network}{figure.1}{}}
\newlabel{eq:power_system}{{20}{16}{Numerical Simulations}{equation.5.20}{}}
\bibstyle{plain}
\bibdata{sources}
\@writefile{toc}{\contentsline {subsection}{\numberline {\unhbox \voidb@x \hbox {V-A}}Task 1: Vary number of sensor attacks and actuator attacks}{17}{subsection.5.1}}
\@writefile{toc}{\contentsline {subsection}{\numberline {\unhbox \voidb@x \hbox {V-B}}Task 2: Vary intensity of process and measurement noises through $\sigma $}{17}{subsection.5.2}}
\@writefile{toc}{\contentsline {subsection}{\numberline {\unhbox \voidb@x \hbox {V-C}}Task 3: Cross validation}{17}{subsection.5.3}}
\bibcite{BenTal.2009}{1}
\bibcite{bergen00}{2}
\bibcite{Bertsimas.2014}{3}
\bibcite{Cardenas.2008b}{4}
\bibcite{Cardenas.2008}{5}
\bibcite{Christie.2000}{6}
\bibcite{Farwell.2011}{7}
\bibcite{Fawzi14}{8}
\bibcite{giannakis13}{9}
\bibcite{Kundur.1994}{10}
\bibcite{lesieutre11}{11}
\bibcite{Mo.2010}{12}
\bibcite{Pajic.2014}{13}
\bibcite{Pasqualetti.2013}{14}
\bibcite{Pasqualetti.2011}{15}
\bibcite{Richards.2008}{16}
\bibcite{Silverman.1976}{17}
\bibcite{Xie.1994}{18}
\bibcite{Xu.2009}{19}
\@writefile{toc}{\contentsline {subsection}{\numberline {\unhbox \voidb@x \hbox {V-D}}Task 4: Forward Propagation}{18}{subsection.5.4}}
\@writefile{toc}{\contentsline {subsection}{\numberline {\unhbox \voidb@x \hbox {V-E}}Task 5: Error of initial state}{18}{subsection.5.5}}
\@writefile{toc}{\contentsline {section}{References}{18}{section*.3}}
\@writefile{toc}{\contentsline {section}{Appendix\nobreakspace  A: Alternative Proof for Equivalence of Robustification and Regularization with uncertainty sets $\mathcal  {U}_{(\ell _1,\ell _1)}$, $\mathcal  {U}_{(\ell _2,\ell _2)}$ and $\mathcal  {U}_{(\ell _\infty ,\ell _\infty )}$}{19}{section*.4}}
\@writefile{toc}{\contentsline {section}{Appendix\nobreakspace  B: Cyber-Physical Attacks on Electric Power Grids}{20}{section*.5}}
\newlabel{derivation}{{B}{20}{\appendixname \nobreakspace \thesectiondis \\* Cyber-Physical Attacks on Electric Power Grids}{section*.5}{}}
\@writefile{toc}{\contentsline {subsection}{\numberline {\unhbox \voidb@x \hbox {B-A}}Mathematical Model}{20}{subsection.Appendix.B.1}}
\citation{Pasqualetti.2013,Kundur.1994}
\citation{Pasqualetti.2011}
\citation{lesieutre11}
\citation{giannakis13}
\@writefile{toc}{\contentsline {section}{Appendix\nobreakspace  C: Electric Power System Analysis}{22}{section*.6}}
\@writefile{lof}{\contentsline {figure}{\numberline {2}{\ignorespaces 3-bus transmission network \cite  {lesieutre11}}}{23}{figure.2}}
\newlabel{fig:case3}{{2}{23}{3-bus transmission network \cite {lesieutre11}}{figure.2}{}}
\citation{bergen00}
\@writefile{toc}{\contentsline {subsection}{\numberline {\unhbox \voidb@x \hbox {C-A}}Equivalent $\Pi $ Circuit Model}{24}{subsection.Appendix.C.1}}
\@writefile{lof}{\contentsline {figure}{\numberline {3}{\ignorespaces Equivalent $\Pi $ circuit}}{24}{figure.3}}
\newlabel{fig:pi_circuit}{{3}{24}{Equivalent $\Pi $ circuit}{figure.3}{}}
\newlabel{eqn:ohms_law}{{21}{25}{Equivalent $\Pi $ Circuit Model}{equation.Appendix.C.21}{}}
\@writefile{toc}{\contentsline {subsection}{\numberline {\unhbox \voidb@x \hbox {C-B}}Power Flow Equations}{25}{subsection.Appendix.C.2}}
\newlabel{eqn:complex_power}{{22}{26}{Power Flow Equations}{equation.Appendix.C.22}{}}
\newlabel{eqn:real_power}{{23}{26}{Power Flow Equations}{equation.Appendix.C.23}{}}
\newlabel{eqn:reactive_power}{{24}{26}{Power Flow Equations}{equation.Appendix.C.24}{}}
\newlabel{eqn:real_power}{{26}{26}{Power Flow Equations}{equation.Appendix.C.26}{}}
