\relax 
\citation{Fawzi14}
\citation{Fawzi14}
\citation{Fawzi14}
\citation{Fawzi14}
\citation{Wood96}
\citation{Fawzi14}
\bibstyle{plain}
\bibdata{sources}
\bibcite{Fawzi14}{1}
\bibcite{Wood96}{2}
\@writefile{toc}{\contentsline {section}{\numberline {1}\relax \fontsize  {12}{14}\selectfont  Motivation/Introduction}{1}}
\newlabel{P}{{1}{1}}
\@writefile{toc}{\contentsline {section}{\numberline {2}\relax \fontsize  {12}{14}\selectfont  Problem Statement}{1}}
\newlabel{RC}{{2}{1}}
\@writefile{toc}{\contentsline {section}{\numberline {3}\relax \fontsize  {12}{14}\selectfont  Plan of attack}{1}}
\newlabel{RC2}{{3}{1}}
\newlabel{RC3}{{4}{1}}
\@input{appendix.aux}
