\relax 
\providecommand\hyper@newdestlabel[2]{}
\providecommand\HyperFirstAtBeginDocument{\AtBeginDocument}
\HyperFirstAtBeginDocument{\ifx\hyper@anchor\@undefined
\global\let\oldcontentsline\contentsline
\gdef\contentsline#1#2#3#4{\oldcontentsline{#1}{#2}{#3}}
\global\let\oldnewlabel\newlabel
\gdef\newlabel#1#2{\newlabelxx{#1}#2}
\gdef\newlabelxx#1#2#3#4#5#6{\oldnewlabel{#1}{{#2}{#3}}}
\AtEndDocument{\ifx\hyper@anchor\@undefined
\let\contentsline\oldcontentsline
\let\newlabel\oldnewlabel
\fi}
\fi}
\global\let\hyper@last\relax 
\gdef\HyperFirstAtBeginDocument#1{#1}
\providecommand\HyField@AuxAddToFields[1]{}
\providecommand\HyField@AuxAddToCoFields[2]{}
\citation{Cardenas.2008b,Richards.2008,Farwell.2011}
\citation{Cardenas.2008,Mo.2010,Pasqualetti.2013}
\citation{Pasqualetti.2013,Fawzi14,Pajic.2014}
\citation{Fawzi14}
\citation{Pajic.2014}
\@writefile{toc}{\contentsline {section}{\numberline {I}Introduction}{1}{section.1}}
\@writefile{toc}{\contentsline {section}{\numberline {II}Problem Statement}{1}{section.2}}
\newlabel{eq:system}{{1}{1}{Problem Statement}{equation.2.1}{}}
\@writefile{toc}{\contentsline {section}{\numberline {III}Preliminary Material}{2}{section.3}}
\@writefile{toc}{\contentsline {subsection}{\numberline {\unhbox \voidb@x \hbox {III-A}}Known System with Sensor Attacks Only}{2}{subsection.3.1}}
\newlabel{eq:system_sensors}{{2}{2}{Known System with Sensor Attacks Only}{equation.3.2}{}}
\citation{Fawzi14}
\citation{Fawzi14}
\newlabel{P}{{3}{3}{Known System with Sensor Attacks Only}{equation.3.3}{}}
\newlabel{eq:relaxed}{{4}{3}{Known System with Sensor Attacks Only}{equation.3.4}{}}
\@writefile{toc}{\contentsline {subsection}{\numberline {\unhbox \voidb@x \hbox {III-B}}Known System with Actuator and Sensor Attacks}{3}{subsection.3.2}}
\newlabel{eq:system_sensors-actuators}{{5}{3}{Known System with Actuator and Sensor Attacks}{equation.3.5}{}}
\citation{Fawzi14}
\citation{Fawzi14}
\citation{Silverman.1976}
\citation{Bertsimas.2014}
\newlabel{eq:AS}{{6}{4}{Known System with Actuator and Sensor Attacks}{equation.3.6}{}}
\@writefile{toc}{\contentsline {subsection}{\numberline {\unhbox \voidb@x \hbox {III-C}}Equivalence of Robust Regression and $\ell _{q}$-Regularization}{4}{subsection.3.3}}
\newlabel{thm:equiv}{{1}{4}{Equivalence of Robust Regression and $\ell _{q}$-Regularization \cite [Corollary 1]{Bertsimas.2014}}{thm.1}{}}
\citation{Bertsimas.2014}
\citation{Xu.2009,BenTal.2009}
\@writefile{toc}{\contentsline {section}{\numberline {IV}Robust Estimation}{5}{section.4}}
\newlabel{eq:system_compact}{{7}{5}{Robust Estimation}{equation.4.7}{}}
\newlabel{eq:uMatrices}{{8}{5}{Robust Estimation}{equation.4.8}{}}
\citation{Pajic.2014}
\citation{Pajic.2014}
\newlabel{eq:matrices}{{9}{6}{Robust Estimation}{equation.4.9}{}}
\newlabel{eq:RC}{{10}{6}{Robust Estimation}{equation.4.10}{}}
\@writefile{toc}{\contentsline {subsection}{\numberline {\unhbox \voidb@x \hbox {IV-A}}Robust Estimation of $x_0$}{7}{subsection.4.1}}
\newlabel{sec:estimator}{{\unhbox \voidb@x \hbox {IV-A}}{7}{Robust Estimation of $x_0$}{subsection.4.1}{}}
\@writefile{toc}{\contentsline {subsubsection}{\numberline {\unhbox \voidb@x \hbox {IV-A}1}Row-wise Uncertainty Sets}{7}{subsubsection.4.1.1}}
\newlabel{eq:subproblem_E}{{11}{7}{Row-wise Uncertainty Sets}{equation.4.11}{}}
\newlabel{defn:row_wise_uncertainty_set}{{1}{7}{Row-wise uncertainty sets}{defn.1}{}}
\newlabel{lem:1}{{1}{7}{}{lem.1}{}}
\newlabel{asmpt:uncertainty_set_uncoupled}{{1}{7}{Uncoupled uncertainty sets}{asmpt.1}{}}
\newlabel{prop:general}{{1}{7}{Robust Estimation of $x_0$ with $\ell _1/\ell _r$ relaxation and $\ell _q$-regularization}{prop.1}{}}
\newlabel{eq:robust_estimator}{{12}{8}{Robust Estimation of $x_0$ with $\ell _1/\ell _r$ relaxation and $\ell _q$-regularization}{equation.4.12}{}}
\newlabel{cor:q1}{{1}{8}{Robust Estimation of $x_0$ with $\ell _1/\ell _r$ relaxation and $\ell _1$-regularization}{cor.1}{}}
\@writefile{toc}{\contentsline {subsubsection}{\numberline {\unhbox \voidb@x \hbox {IV-A}2}Coupled Uncertainty Set}{9}{subsubsection.4.1.2}}
\newlabel{defn:uncertainty_set_