\relax 
\providecommand\hyper@newdestlabel[2]{}
\providecommand\HyperFirstAtBeginDocument{\AtBeginDocument}
\HyperFirstAtBeginDocument{\ifx\hyper@anchor\@undefined
\global\let\oldcontentsline\contentsline
\gdef\contentsline#1#2#3#4{\oldcontentsline{#1}{#2}{#3}}
\global\let\oldnewlabel\newlabel
\gdef\newlabel#1#2{\newlabelxx{#1}#2}
\gdef\newlabelxx#1#2#3#4#5#6{\oldnewlabel{#1}{{#2}{#3}}}
\AtEndDocument{\ifx\hyper@anchor\@undefined
\let\contentsline\oldcontentsline
\let\newlabel\oldnewlabel
\fi}
\fi}
\global\let\hyper@last\relax 
\gdef\HyperFirstAtBeginDocument#1{#1}
\providecommand\HyField@AuxAddToFields[1]{}
\providecommand\HyField@AuxAddToCoFields[2]{}
\@writefile{toc}{\beamer@endinputifotherversion {3.33pt}}
\@writefile{nav}{\beamer@endinputifotherversion {3.33pt}}
\@writefile{nav}{\headcommand {\slideentry {0}{0}{1}{1/1}{}{0}}}
\@writefile{nav}{\headcommand {\beamer@framepages {1}{1}}}
\@writefile{toc}{\beamer@sectionintoc {1}{Introduction}{2}{0}{1}}
\@writefile{nav}{\headcommand {\sectionentry {1}{Introduction}{2}{Introduction}{0}}}
\@writefile{nav}{\headcommand {\beamer@sectionpages {1}{1}}}
\@writefile{nav}{\headcommand {\beamer@subsectionpages {1}{1}}}
\@writefile{nav}{\headcommand {\slideentry {1}{0}{2}{2/2}{}{0}}}
\@writefile{nav}{\headcommand {\beamer@framepages {2}{2}}}
\citation{Pasqualetti.2013}
\citation{Fawzi.2014}
\citation{Yong.Zhu.ea.CDC15}
\citation{Pajic.2014}
\citation{Xie.1994}
\citation{Calafiore.2004}
\citation{Bertsimas.2014}
\citation{Pasqualetti.2013}
\citation{Fawzi.2014}
\citation{Yong.Zhu.ea.CDC15}
\citation{Pajic.2014}
\citation{Xie.1994}
\citation{Calafiore.2004}
\citation{Bertsimas.2014}
\@writefile{nav}{\headcommand {\slideentry {1}{0}{3}{3/4}{}{0}}}
\@writefile{nav}{\headcommand {\beamer@framepages {3}{4}}}
\@writefile{toc}{\beamer@sectionintoc {2}{Simulation Results}{5}{0}{2}}
\@writefile{nav}{\headcommand {\sectionentry {2}{Simulation Results}{5}{Simulation Results}{0}}}
\@writefile{nav}{\headcommand {\beamer@sectionpages {2}{4}}}
\@writefile{nav}{\headcommand {\beamer@subsectionpages {2}{4}}}
\@writefile{nav}{\headcommand {\slideentry {2}{0}{4}{5/7}{}{0}}}
\@writefile{nav}{\headcommand {\beamer@framepages {5}{7}}}
\@writefile{nav}{\headcommand {\slideentry {2}{0}{5}{8/8}{}{0}}}
\@writefile{nav}{\headcommand {\beamer@framepages {8}{8}}}
\@writefile{nav}{\headcommand {\slideentry {2}{0}{6}{9/10}{}{0}}}
\@writefile{nav}{\headcommand {\beamer@framepages {9}{10}}}
\citation{Pasqualetti.2013}
\citation{Fawzi.2014}
\citation{Yong.Zhu.ea.CDC15}
\citation{Pajic.2014}
\citation{Xie.1994}
\citation{Calafiore.2004}
\@writefile{toc}{\beamer@sectionintoc {3}{Conclusion}{11}{0}{3}}
\@writefile{nav}{\headcommand {\sectionentry {3}{Conclusion}{11}{Conclusion}{0}}}
\@writefile{nav}{\headcommand {\beamer@sectionpages {5}{10}}}
\@writefile{nav}{\headcommand {\beamer@subsectionpages {5}{10}}}
\citation{Pasqualetti.2013}
\citation{Fawzi.2014}
\citation{Yong.Zhu.ea.CDC15}
\citation{Pajic.2014}
\citation{Xie.1994}
\citation{Calafiore.2004}
\@writefile{nav}{\headcommand {\slideentry {3}{0}{7}{11/12}{}{0}}}
\@writefile{nav}{\headcommand {\beamer@framepages {11}{12}}}
\bibstyle{apalike}
\bibdata{biblio}
\bibcite{Bertsimas.2014}{\hyperlink {beamerbibBertsimas.2014}{Bertsimas and Copenhaver, 2014}}
\bibcite{Calafiore.2004}{\hyperlink {beamerbibCalafiore.2004}{Calafiore and {El Ghaoui}, 2004}}
\bibcite{Fawzi.2014}{\hyperlink {beamerbibFawzi.2014}{Fawzi et\nobreakspace  {}al., 2014}}
\bibcite{Pajic.2014}{\hyperlink {beamerbibPajic.2014}{Pajic et\nobreakspace  {}al., 2014}}
\bibcite{Pasqualetti.2013}{\hyperlink {beamerbibPasqualetti.2013}{Pasqualetti et\nobreakspace  {}al., 2013}}
\bibcite{Xie.1994}{\hyperlink {beamerbibXie.1994}{Xie et\nobreakspace  {}al., 1994}}
\bibcite{Yong.Zhu.ea.CDC15}{\hyperlink {beamerbibYong.Zhu.ea.CDC15}{Yong et\nobreakspace  {}al., 2015}}
\@writefile{nav}{\headcommand {\sectionentry {4}{References}{13}{References}{0}}}
\@writefile{nav}{\headcommand {\beamer@sectionpages {11}{12}}}
\@writefile{nav}{\headcommand {\beamer@subsectionpages {11}{12}}}
\@writefile{nav}{\headcommand {\slideentry {4}{0}{8}{13/13}{}{0}}}
\@writefile{nav}{\headcommand {\beamer@framepages {13}{13}}}
\@writefile{nav}{\headcommand {\beamer@partpages {1}{13}}}
\@writefile{nav}{\headcommand {\beamer@subsectionpages {13}{13}}}
\@writefile{nav}{\headcommand {\beamer@sectionpages {13}{13}}}
\@writefile{nav}{\headcommand {\beamer@documentpages {13}}}
\@writefile{nav}{\headcommand {\def \inserttotalframenumber {8}}}
